{
	"info": {
		"_postman_id": "1b7bf1ed-91aa-470d-bf34-47e4f0627541",
		"name": "s35",
		"schema": "https://schema.getpostman.com/json/collection/v2.1.0/collection.json",
		"_exporter_id": "26185914"
	},
	"item": [
		{
			"name": "add task",
			"request": {
				"method": "GET",
				"header": []
			},
			"response": []
		},
		{
			"name": "get all task",
			"request": {
				"method": "GET",
				"header": []
			},
			"response": []
		},
		{
			"name": "register user",
			"request": {
				"method": "GET",
				"header": []
			},
			"response": []
		},
		{
			"name": "get register user",
			"request": {
				"method": "GET",
				"header": []
			},
			"response": []
		}
	]
}